{
    "page": 4,
    "total_pages": 4,
    "total_items": 604,
    "items_per_page": 200,
    "data": [
        {
            "id_mal": "60969",
            "slug": "",
            "imagen": "https:\/\/myanimelist.net\/images\/anime\/1475\/152176l.jpg",
            "titulo": "Taiyou yori mo Mabushii Hoshi",
            "titulo_original": "太陽よりも眩しい星",
            "year": "2025",
            "etiquetas": "Romance",
            "type": "anime",
            "score": "7.3",
            "status": "Finished Airing",
            "created_at": "2025-10-02",
            "updated_at": "2026-03-16T06:13:09.000Z",
            "episodes": 12
        },
        {
            "id_mal": "59623",
            "slug": "",
            "imagen": "https:\/\/myanimelist.net\/images\/anime\/1104\/151524l.jpg",
            "titulo": "Wandance",
            "titulo_original": "ワンダンス",
            "year": "2025",
            "etiquetas": "Sports",
            "type": "anime",
            "score": "6.9",
            "status": "Finished Airing",
            "created_at": "2025-10-08",
            "updated_at": "2026-03-07T15:40:04.000Z",
            "episodes": 12
        },
        {
            "id_mal": "60933",
            "slug": "",
            "imagen": "https:\/\/myanimelist.net\/images\/anime\/1888\/151887l.jpg",
            "titulo": "Chanto Suenai Kyuuketsuki-chan",
            "titulo_original": "ちゃんと吸えない吸血鬼ちゃん",
            "year": "2025",
            "etiquetas": "Comedy, Fantasy",
            "type": "anime",
            "score": "6.8",
            "status": "",
            "created_at": "2025-10-12",
            "updated_at": "2026-03-07T15:39:46.000Z",
            "episodes": 12
        },
        {
            "id_mal": "60765",
            "slug": "",
            "imagen": "https:\/\/myanimelist.net\/images\/anime\/1810\/153334l.jpg",
            "titulo": "Kimi to Koete Koi ni Naru",
            "titulo_original": "キミと越えて恋になる",
            "year": "2025",
            "etiquetas": "Fantasy, Romance",
            "type": "anime",
            "score": "7.1",
            "status": "Finished Airing",
            "created_at": "2025-10-14",
            "updated_at": "2026-03-07T15:39:13.000Z",
            "episodes": 12
        }
    ]
}