{
    "page": 2,
    "total_pages": 2,
    "total_items": 201,
    "items_per_page": 200,
    "data": [
        {
            "id_mal": "62485",
            "imagen": "https:\/\/image.tmdb.org\/t\/p\/w500\/k23I4me4E9pIgD1Y1i2w3Zn1BGx.jpg",
            "titulo": "Kanojo, Okarishimasu 5th Season",
            "titulo_original": "彼女、お借りします 第5期",
            "etiquetas": "Comedy, Romance, Adult Cast, Harem, Shounen",
            "type": "anime",
            "created_at": "2026-04-11",
            "updated_at": "2026-06-24T14:47:50.000Z",
            "year": "2026",
            "score": "6.1",
            "status": "Currently Airing",
            "episodes": 12
        }
    ]
}