{
    "page": 3,
    "total_pages": 3,
    "total_items": 441,
    "items_per_page": 200,
    "data": [
        {
            "id_mal": "59130",
            "imagen": "https:\/\/myanimelist.net\/images\/anime\/1782\/150383l.jpg",
            "titulo": "Isekai Mokushiroku Mynoghra: Hametsu no Bunmei de Hajimeru Sekai Seifuku",
            "titulo_original": "異世界黙示録マイノグーラ ～破滅の文明で始める世界征服～",
            "etiquetas": "Adventure, Fantasy",
            "type": "anime",
            "created_at": "2025-07-06",
            "updated_at": "2026-03-17T00:39:03.000Z",
            "year": "2025",
            "score": "6.6",
            "status": "Finished Airing",
            "episodes": 13,
            "calidad": null
        },
        {
            "id_mal": "59161",
            "imagen": "https:\/\/myanimelist.net\/images\/anime\/1672\/148848l.jpg",
            "titulo": "Bad Girl",
            "titulo_original": "ばっどがーる",
            "etiquetas": "Comedy",
            "type": "anime",
            "created_at": "2025-07-06",
            "updated_at": "2026-03-17T00:39:00.000Z",
            "year": "2025",
            "score": "7.1",
            "status": "Finished Airing",
            "episodes": 12,
            "calidad": null
        },
        {
            "id_mal": "58913",
            "imagen": "https:\/\/myanimelist.net\/images\/anime\/1104\/148614l.jpg",
            "titulo": "Hikaru ga Shinda Natsu",
            "titulo_original": "光が死んだ夏",
            "etiquetas": "Horror, Mystery, Supernatural",
            "type": "anime",
            "created_at": "2025-07-06",
            "updated_at": "2026-03-17T00:38:00.000Z",
            "year": "2025",
            "score": "8.0",
            "status": "Finished Airing",
            "episodes": 12,
            "calidad": null
        },
        {
            "id_mal": "59619",
            "imagen": "https:\/\/myanimelist.net\/images\/anime\/1329\/150512l.jpg",
            "titulo": "Ame to Kimi to",
            "titulo_original": "雨と君と",
            "etiquetas": "Slice of Life",
            "type": "anime",
            "created_at": "2025-07-06",
            "updated_at": "2026-03-17T00:37:58.000Z",
            "year": "2025",
            "score": "7.5",
            "status": "Finished Airing",
            "episodes": 12,
            "calidad": null
        },
        {
            "id_mal": "61339",
            "imagen": "https:\/\/myanimelist.net\/images\/anime\/1484\/150617l.jpg",
            "titulo": "Jibaku Shounen Hanako-kun 2 Part 2",
            "titulo_original": "地縛少年花子くん2 後編",
            "etiquetas": "Supernatural",
            "type": "anime",
            "created_at": "2025-07-06",
            "updated_at": "2026-03-17T00:36:34.000Z",
            "year": "2025",
            "score": "8.1",
            "status": "Finished Airing",
            "episodes": 12,
            "calidad": null
        },
        {
            "id_mal": "53065",
            "imagen": "https:\/\/myanimelist.net\/images\/anime\/1024\/150787l.jpg",
            "titulo": "Sono Bisque Doll wa Koi wo Suru Season 2",
            "titulo_original": "その着せ替え人形は恋をする Season 2",
            "etiquetas": "Romance",
            "type": "anime",
            "created_at": "2025-07-06",
            "updated_at": "2026-03-17T00:36:30.000Z",
            "year": "2025",
            "score": "8.2",
            "status": "Finished Airing",
            "episodes": 12,
            "calidad": null
        },
        {
            "id_mal": "59459",
            "imagen": "https:\/\/myanimelist.net\/images\/anime\/1669\/149732l.jpg",
            "titulo": "Silent Witch: Chinmoku no Majo no Kakushigoto",
            "titulo_original": "サイレント・ウィッチ 沈黙の魔女の隠しごと",
            "etiquetas": "Fantasy",
            "type": "anime",
            "created_at": "2025-07-05",
            "updated_at": "2026-03-17T00:35:02.000Z",
            "year": "2025",
            "score": "8.1",
            "status": "Finished Airing",
            "episodes": 13,
            "calidad": null
        },
        {
            "id_mal": "56693",
            "imagen": "https:\/\/myanimelist.net\/images\/anime\/1502\/150545l.jpg",
            "titulo": "Watari-kun no xx ga Houkai Sunzen",
            "titulo_original": "渡くんの××が崩壊寸前",
            "etiquetas": "Comedy, Drama, Romance",
            "type": "anime",
            "created_at": "2025-07-05",
            "updated_at": "2026-03-17T00:34:58.000Z",
            "year": "2025",
            "score": "6.7",
            "status": "Finished Airing",
            "episodes": 26,
            "calidad": null
        },
        {
            "id_mal": "59277",
            "imagen": "https:\/\/myanimelist.net\/images\/anime\/1071\/150808l.jpg",
            "titulo": "Kanojo, Okarishimasu 4th Season",
            "titulo_original": "彼女、お借りします 第4期",
            "etiquetas": "Comedy, Romance",
            "type": "anime",
            "created_at": "2025-07-05",
            "updated_at": "2026-03-17T00:34:10.000Z",
            "year": "2025",
            "score": "6.2",
            "status": "Finished Airing",
            "episodes": 12,
            "calidad": null
        },
        {
            "id_mal": "60697",
            "imagen": "https:\/\/myanimelist.net\/images\/anime\/1104\/150590l.jpg",
            "titulo": "Fermat no Ryouri",
            "titulo_original": "フェルマーの料理",
            "etiquetas": "Drama, Gourmet",
            "type": "anime",
            "created_at": "2025-07-05",
            "updated_at": "2026-03-17T00:34:07.000Z",
            "year": "2025",
            "score": "7.0",
            "status": "Finished Airing",
            "episodes": 12,
            "calidad": null
        },
        {
            "id_mal": "57433",
            "imagen": "https:\/\/myanimelist.net\/images\/anime\/1823\/149858l.jpg",
            "titulo": "Seishun Buta Yarou wa Santa Claus no Yume wo Minai",
            "titulo_original": "青春ブタ野郎はサンタクロースの夢を見ない",
            "etiquetas": "Drama, Romance, Supernatural",
            "type": "anime",
            "created_at": "2025-07-05",
            "updated_at": "2026-03-17T00:33:14.000Z",
            "year": "2025",
            "score": "8.2",
            "status": "Finished Airing",
            "episodes": 13,
            "calidad": null
        },
        {
            "id_mal": "59421",
            "imagen": "https:\/\/myanimelist.net\/images\/anime\/1518\/149900l.jpg",
            "titulo": "Zutaboro Reijou wa Ane no Moto Konyakusha ni Dekiai sareru",
            "titulo_original": "ずたぼろ令嬢は姉の元婚約者に溺愛される",
            "etiquetas": "Drama, Romance",
            "type": "anime",
            "created_at": "2025-07-05",
            "updated_at": "2026-03-17T00:32:24.000Z",
            "year": "2025",
            "score": "7.4",
            "status": "Finished Airing",
            "episodes": 12,
            "calidad": null
        },
        {
            "id_mal": "53512",
            "imagen": "https:\/\/myanimelist.net\/images\/anime\/1672\/148193l.jpg",
            "titulo": "Busu ni Hanataba wo.",
            "titulo_original": "ブスに花束を。",
            "etiquetas": "Comedy, Romance",
            "type": "anime",
            "created_at": "2025-07-04",
            "updated_at": "2026-03-17T00:31:54.000Z",
            "year": "2025",
            "score": "7.2",
            "status": "Finished Airing",
            "episodes": 13,
            "calidad": null
        },
        {
            "id_mal": "58749",
            "imagen": "https:\/\/myanimelist.net\/images\/anime\/1790\/149462l.jpg",
            "titulo": "Arknights: Rise from Ember",
            "titulo_original": "アークナイツ【焔燼曙明\/RISE FROM EMBER】",
            "etiquetas": "Action, Fantasy",
            "type": "anime",
            "created_at": "2025-07-04",
            "updated_at": "2026-03-17T00:31:15.000Z",
            "year": "2025",
            "score": "7.8",
            "status": "Finished Airing",
            "episodes": 10,
            "calidad": null
        },
        {
            "id_mal": "60732",
            "imagen": "https:\/\/myanimelist.net\/images\/anime\/1383\/151072l.jpg",
            "titulo": "Mizu Zokusei no Mahoutsukai",
            "titulo_original": "水属性の魔法使い",
            "etiquetas": "Adventure, Fantasy",
            "type": "anime",
            "created_at": "2025-07-04",
            "updated_at": "2026-03-17T00:30:49.000Z",
            "year": "2025",
            "score": "7.1",
            "status": "Finished Airing",
            "episodes": 12,
            "calidad": null
        },
        {
            "id_mal": "58390",
            "imagen": "https:\/\/myanimelist.net\/images\/anime\/1509\/148453l.jpg",
            "titulo": "Yofukashi no Uta Season 2",
            "titulo_original": "よふかしのうた Season2",
            "etiquetas": "Romance, Supernatural",
            "type": "anime",
            "created_at": "2025-07-04",
            "updated_at": "2026-03-17T00:23:43.000Z",
            "year": "2025",
            "score": "8.3",
            "status": "Finished Airing",
            "episodes": 12,
            "calidad": null
        },
        {
            "id_mal": "60543",
            "imagen": "https:\/\/myanimelist.net\/images\/anime\/1721\/149001l.jpg",
            "titulo": "Dandadan 2nd Season",
            "titulo_original": "ダンダダン 第2期",
            "etiquetas": "Action, Comedy, Supernatural",
            "type": "anime",
            "created_at": "2025-07-04",
            "updated_at": "2026-03-17T00:23:15.000Z",
            "year": "2025",
            "score": "8.4",
            "status": "Finished Airing",
            "episodes": 12,
            "calidad": null
        },
        {
            "id_mal": "16498",
            "imagen": "https:\/\/myanimelist.net\/images\/anime\/10\/47347l.jpg",
            "titulo": "Shingeki no Kyojin",
            "titulo_original": "進撃の巨人",
            "etiquetas": "Action, Award Winning, Drama, Suspense",
            "type": "anime",
            "created_at": "2013-04-07",
            "updated_at": "2026-03-17T00:22:27.000Z",
            "year": "2013",
            "score": "8.6",
            "status": "Finished Airing",
            "episodes": 25,
            "calidad": null
        },
        {
            "id_mal": "1535",
            "imagen": "https:\/\/myanimelist.net\/images\/anime\/1079\/138100l.jpg",
            "titulo": "Death Note",
            "titulo_original": "デスノート",
            "etiquetas": "Supernatural, Suspense",
            "type": "anime",
            "created_at": "2006-10-04",
            "updated_at": "2026-03-17T00:19:24.000Z",
            "year": "2006",
            "score": "8.6",
            "status": "Finished Airing",
            "episodes": 37,
            "calidad": null
        },
        {
            "id_mal": "30276",
            "imagen": "https:\/\/myanimelist.net\/images\/anime\/12\/76049l.jpg",
            "titulo": "One Punch Man",
            "titulo_original": "ワンパンマン",
            "etiquetas": "Action, Comedy",
            "type": "anime",
            "created_at": "2015-10-05",
            "updated_at": "2026-03-17T00:19:21.000Z",
            "year": "2015",
            "score": "8.5",
            "status": "Finished Airing",
            "episodes": 12,
            "calidad": null
        },
        {
            "id_mal": "38000",
            "imagen": "https:\/\/myanimelist.net\/images\/anime\/1286\/99889l.jpg",
            "titulo": "Kimetsu no Yaiba",
            "titulo_original": "鬼滅の刃",
            "etiquetas": "Action, Award Winning, Supernatural",
            "type": "anime",
            "created_at": "2019-04-06",
            "updated_at": "2026-03-17T00:19:18.000Z",
            "year": "2019",
            "score": "8.4",
            "status": "Finished Airing",
            "episodes": 26,
            "calidad": null
        },
        {
            "id_mal": "5114",
            "imagen": "https:\/\/myanimelist.net\/images\/anime\/1208\/94745l.jpg",
            "titulo": "Fullmetal Alchemist: Brotherhood",
            "titulo_original": "鋼の錬金術師 FULLMETAL ALCHEMIST",
            "etiquetas": "Action, Adventure, Drama, Fantasy",
            "type": "anime",
            "created_at": "2009-04-05",
            "updated_at": "2026-03-17T00:18:12.000Z",
            "year": "2009",
            "score": "9.1",
            "status": "Finished Airing",
            "episodes": 64,
            "calidad": null
        },
        {
            "id_mal": "11757",
            "imagen": "https:\/\/myanimelist.net\/images\/anime\/11\/39717l.jpg",
            "titulo": "Sword Art Online",
            "titulo_original": "ソードアート・オンライン",
            "etiquetas": "Action, Adventure, Fantasy, Romance",
            "type": "anime",
            "created_at": "2012-07-08",
            "updated_at": "2026-03-17T00:18:08.000Z",
            "year": "2012",
            "score": "7.2",
            "status": "Finished Airing",
            "episodes": 25,
            "calidad": null
        },
        {
            "id_mal": "31964",
            "imagen": "https:\/\/myanimelist.net\/images\/anime\/10\/78745l.jpg",
            "titulo": "Boku no Hero Academia",
            "titulo_original": "僕のヒーローアカデミア",
            "etiquetas": "Action",
            "type": "anime",
            "created_at": "2016-04-03",
            "updated_at": "2026-03-17T00:18:04.000Z",
            "year": "2016",
            "score": "7.8",
            "status": "Finished Airing",
            "episodes": 13,
            "calidad": null
        },
        {
            "id_mal": "25777",
            "imagen": "https:\/\/myanimelist.net\/images\/anime\/4\/84177l.jpg",
            "titulo": "Shingeki no Kyojin Season 2",
            "titulo_original": "進撃の巨人 Season2",
            "etiquetas": "Action, Drama, Suspense",
            "type": "anime",
            "created_at": "2017-04-01",
            "updated_at": "2026-03-17T00:12:55.000Z",
            "year": "2017",
            "score": "8.5",
            "status": "Finished Airing",
            "episodes": 12,
            "calidad": null
        },
        {
            "id_mal": "22319",
            "imagen": "https:\/\/myanimelist.net\/images\/anime\/1498\/134443l.jpg",
            "titulo": "Tokyo Ghoul",
            "titulo_original": "東京喰種-トーキョーグール-",
            "etiquetas": "Action, Fantasy, Horror, Suspense",
            "type": "anime",
            "created_at": "2014-07-04",
            "updated_at": "2026-03-17T00:12:50.000Z",
            "year": "2014",
            "score": "7.8",
            "status": "Finished Airing",
            "episodes": 12,
            "calidad": null
        },
        {
            "id_mal": "40748",
            "imagen": "https:\/\/myanimelist.net\/images\/anime\/1171\/109222l.jpg",
            "titulo": "Jujutsu Kaisen",
            "titulo_original": "呪術廻戦",
            "etiquetas": "Action, Award Winning, Supernatural",
            "type": "anime",
            "created_at": "2020-10-03",
            "updated_at": "2026-03-17T00:12:47.000Z",
            "year": "2020",
            "score": "8.5",
            "status": "Finished Airing",
            "episodes": 24,
            "calidad": null
        },
        {
            "id_mal": "35760",
            "imagen": "https:\/\/myanimelist.net\/images\/anime\/1173\/92110l.jpg",
            "titulo": "Shingeki no Kyojin Season 3",
            "titulo_original": "進撃の巨人 Season3",
            "etiquetas": "Action, Drama, Suspense",
            "type": "anime",
            "created_at": "2018-07-23",
            "updated_at": "2026-03-16T23:40:38.000Z",
            "year": "2018",
            "score": "8.6",
            "status": "Finished Airing",
            "episodes": 12,
            "calidad": null
        },
        {
            "id_mal": "38524",
            "imagen": "https:\/\/myanimelist.net\/images\/anime\/1517\/100633l.jpg",
            "titulo": "Shingeki no Kyojin Season 3 Part 2",
            "titulo_original": "進撃の巨人 Season3 Part.2",
            "etiquetas": "Action, Drama, Suspense",
            "type": "anime",
            "created_at": "2019-04-29",
            "updated_at": "2026-03-16T23:40:33.000Z",
            "year": "2019",
            "score": "9.1",
            "status": "Finished Airing",
            "episodes": 10,
            "calidad": null
        },
        {
            "id_mal": "19815",
            "imagen": "https:\/\/myanimelist.net\/images\/anime\/1074\/111944l.jpg",
            "titulo": "No Game No Life",
            "titulo_original": "ノーゲーム・ノーライフ",
            "etiquetas": "Comedy, Fantasy, Ecchi",
            "type": "anime",
            "created_at": "2014-04-09",
            "updated_at": "2026-03-16T23:40:30.000Z",
            "year": "2014",
            "score": "8.0",
            "status": "Finished Airing",
            "episodes": 12,
            "calidad": null
        },
        {
            "id_mal": "36456",
            "imagen": "https:\/\/myanimelist.net\/images\/anime\/1319\/92084l.jpg",
            "titulo": "Boku no Hero Academia 3rd Season",
            "titulo_original": "僕のヒーローアカデミア",
            "etiquetas": "Action",
            "type": "anime",
            "created_at": "2018-04-07",
            "updated_at": "2026-03-16T23:35:41.000Z",
            "year": "2018",
            "score": "8.0",
            "status": "Finished Airing",
            "episodes": 25,
            "calidad": null
        },
        {
            "id_mal": "11061",
            "imagen": "https:\/\/myanimelist.net\/images\/anime\/1337\/99013l.jpg",
            "titulo": "Hunter x Hunter (2011)",
            "titulo_original": "HUNTER×HUNTER（ハンター×ハンター）",
            "etiquetas": "Action, Adventure, Fantasy",
            "type": "anime",
            "created_at": "2011-10-02",
            "updated_at": "2026-03-16T20:27:40.000Z",
            "year": "2011",
            "score": "9.0",
            "status": "Finished Airing",
            "episodes": 148,
            "calidad": null
        },
        {
            "id_mal": "62144",
            "imagen": "https:\/\/myanimelist.net\/images\/anime\/1311\/151227l.jpg",
            "titulo": "Potion, Wagami wo Tasukeru",
            "titulo_original": "ポーション、わが身を助ける",
            "etiquetas": "Fantasy",
            "type": "anime",
            "created_at": "2025-10-03",
            "updated_at": "2026-03-16T06:15:55.000Z",
            "year": "2025",
            "score": "6.4",
            "status": "Finished Airing",
            "episodes": 12,
            "calidad": null
        },
        {
            "id_mal": "60531",
            "imagen": "https:\/\/myanimelist.net\/images\/anime\/1257\/152233l.jpg",
            "titulo": "Bukiyou na Senpai.",
            "titulo_original": "不器用な先輩。",
            "etiquetas": "Comedy, Romance",
            "type": "anime",
            "created_at": "2025-10-02",
            "updated_at": "2026-03-16T06:15:51.000Z",
            "year": "2025",
            "score": "7.1",
            "status": "Finished Airing",
            "episodes": 12,
            "calidad": null
        },
        {
            "id_mal": "60162",
            "imagen": "https:\/\/myanimelist.net\/images\/anime\/1264\/152012l.jpg",
            "titulo": "Akujiki Reijou to Kyouketsu Koushaku",
            "titulo_original": "悪食令嬢と狂血公爵",
            "etiquetas": "Fantasy, Gourmet, Romance",
            "type": "anime",
            "created_at": "2025-10-03",
            "updated_at": "2026-03-16T06:14:43.000Z",
            "year": "2025",
            "score": "7.1",
            "status": "Finished Airing",
            "episodes": 12,
            "calidad": null
        },
        {
            "id_mal": "61773",
            "imagen": "https:\/\/myanimelist.net\/images\/anime\/1148\/150376l.jpg",
            "titulo": "Let's Play: Quest-darake no My Life",
            "titulo_original": "Let's Play クエストだらけのマイライフ",
            "etiquetas": "Drama, Romance",
            "type": "anime",
            "created_at": "2025-10-02",
            "updated_at": "2026-03-16T06:14:39.000Z",
            "year": "2025",
            "score": "6.8",
            "status": "Finished Airing",
            "episodes": 12,
            "calidad": null
        },
        {
            "id_mal": "60168",
            "imagen": "https:\/\/myanimelist.net\/images\/anime\/1191\/152368l.jpg",
            "titulo": "Watashi wo Tabetai, Hitodenashi",
            "titulo_original": "私を喰べたい、ひとでなし",
            "etiquetas": "Drama, Girls Love, Supernatural",
            "type": "anime",
            "created_at": "2025-10-02",
            "updated_at": "2026-03-16T06:13:12.000Z",
            "year": "2025",
            "score": "7.4",
            "status": "Finished Airing",
            "episodes": 13,
            "calidad": null
        },
        {
            "id_mal": "60969",
            "imagen": "https:\/\/myanimelist.net\/images\/anime\/1475\/152176l.jpg",
            "titulo": "Taiyou yori mo Mabushii Hoshi",
            "titulo_original": "太陽よりも眩しい星",
            "etiquetas": "Romance",
            "type": "anime",
            "created_at": "2025-10-02",
            "updated_at": "2026-03-16T06:13:09.000Z",
            "year": "2025",
            "score": "7.3",
            "status": "Finished Airing",
            "episodes": 12,
            "calidad": null
        },
        {
            "id_mal": "59623",
            "imagen": "https:\/\/myanimelist.net\/images\/anime\/1104\/151524l.jpg",
            "titulo": "Wandance",
            "titulo_original": "ワンダンス",
            "etiquetas": "Sports",
            "type": "anime",
            "created_at": "2025-10-08",
            "updated_at": "2026-03-07T15:40:04.000Z",
            "year": "2025",
            "score": "6.9",
            "status": "",
            "episodes": "12",
            "calidad": null
        },
        {
            "id_mal": "60933",
            "imagen": "https:\/\/myanimelist.net\/images\/anime\/1888\/151887l.jpg",
            "titulo": "Chanto Suenai Kyuuketsuki-chan",
            "titulo_original": "ちゃんと吸えない吸血鬼ちゃん",
            "etiquetas": "Comedy, Fantasy",
            "type": "anime",
            "created_at": "2025-10-12",
            "updated_at": "2026-03-07T15:39:46.000Z",
            "year": "2025",
            "score": "6.8",
            "status": "",
            "episodes": "12",
            "calidad": null
        },
        {
            "id_mal": "60765",
            "imagen": "https:\/\/myanimelist.net\/images\/anime\/1810\/153334l.jpg",
            "titulo": "Kimi to Koete Koi ni Naru",
            "titulo_original": "キミと越えて恋になる",
            "etiquetas": "Fantasy, Romance",
            "type": "anime",
            "created_at": "2025-10-14",
            "updated_at": "2026-03-07T15:39:13.000Z",
            "year": "2025",
            "score": "7.1",
            "status": "",
            "episodes": "12",
            "calidad": null
        }
    ]
}