{
    "total_items": 243,
    "total_pages": 2,
    "items_per_page": 200,
    "pages": [
        {
            "page_number": 1,
            "path": "page\/animes_page_1.json",
            "item_count": 200
        },
        {
            "page_number": 2,
            "path": "page\/animes_page_2.json",
            "item_count": 43
        }
    ],
    "last_updated": "2026-07-10T07:10:09.000Z"
}